{
  "pontos": [
    {
      "nome": "Ponto A",
      "imagem": "ponto_a.png",
      "localizacao": {
        "lat": -21.872461620140914,
        "lng": -47.066535095214874
      }
    },
    {
      "nome": "Ponto B",
      "imagem": "ponto_b.png",
      "localizacao": {
        "lat": -21.904,
        "lng": -47.0604566
      }
    }
  ]
}